module gitlab.com/mog33/geocitiesapi

go 1.18

require (
	github.com/gin-gonic/gin v1.7.7
	github.com/joho/godotenv v1.4.0
	github.com/lib/pq v1.10.5
	github.com/mattn/go-sqlite3 v1.14.12
	github.com/pkg/errors v0.9.1
)

require (
	github.com/gin-contrib/sse v0.1.0 // indirect
	github.com/go-playground/locales v0.13.0 // indirect
	github.com/go-playground/universal-translator v0.17.0 // indirect
	github.com/go-playground/validator/v10 v10.4.1 // indirect
	github.com/golang/protobuf v1.3.3 // indirect
	github.com/json-iterator/go v1.1.9 // indirect
	github.com/leodido/go-urn v1.2.0 // indirect
	github.com/mattn/go-isatty v0.0.12 // indirect
	github.com/modern-go/concurrent v0.0.0-20180228061459-e0a39a4cb421 // indirect
	github.com/modern-go/reflect2 v0.0.0-20180701023420-4b7aa43c6742 // indirect
	github.com/ugorji/go/codec v1.1.7 // indirect
	golang.org/x/crypto v0.0.0-20200622213623-75b288015ac9 // indirect
	golang.org/x/sys v0.0.0-20200116001909-b77594299b42 // indirect
	gopkg.in/yaml.v2 v2.2.8 // indirect
)
